<?xml version="1.0" encoding="utf-8"?>
<!-- Generator: Adobe Illustrator 21.1.0, SVG Export Plug-In . SVG Version: 6.00 Build 0)  -->
<svg version="1.1" id="Layer_1" xmlns="http://www.w3.org/2000/svg" xmlns:xlink="http://www.w3.org/1999/xlink" x="0px" y="0px"
	 viewBox="0 0 145.3294067 189.9315186" style="enable-background:new 0 0 145.3294067 189.9315186;" xml:space="preserve">
<style type="text/css">
	.st0{opacity:0.2;}
	.st1{fill:#8283CC;}
	.st2{fill:#FFFFFF;}
	.st3{fill:#9899EF;}
	.st4{fill:#F6F4F6;}
	.st5{fill:#18979E;}
	.st6{fill:#334142;}
	.st7{fill:#127177;}
	.st8{fill:#5D61B0;}
	.st9{fill:#7276B7;}
	.st10{fill:#CCCFFF;}
	.st11{fill:#2F3159;}
	.st12{fill:#ED902B;}
	.st13{fill:#FFEFB8;}
	.st14{fill:#FFDB5A;}
	.st15{fill:#009DDB;}
</style>
<g>
	<g>
		<g class="st0">
			<g>
				<path class="st1" d="M143.0282288,141.0913086l-63.5412827-38.4986877c-3.0552368-1.7632751-7.9891663-1.7632751-11.0236816,0
					L2.2654164,143.7264709c-3.0348206,1.7632751-3.01828,4.6216125,0.0363464,6.3848877l63.5412941,38.4967651
					c3.0532837,1.7645264,7.9882202,1.7645264,11.0229797,0l66.1978378-41.1306152
					C146.0987244,145.7128906,146.0821838,142.8545837,143.0282288,141.0913086z"/>
			</g>
		</g>
		<g>
			<g>
				<g>
					<g>
						<g>
							<path class="st2" d="M143.0281677,111.5460815L79.4869766,73.0479126c-3.0551758-1.763031-7.9890747-1.763031-11.023468,0
								L2.2653859,114.181488c-3.0347595,1.7637939-3.0183105,4.6218262,0.0364685,6.3848572l63.541172,38.4967346
								c3.0533752,1.7651978,7.9884338,1.7651978,11.0227356,0l66.1981735-41.1306763
								C146.0986633,116.1679077,146.0822449,113.309845,143.0281677,111.5460815z"/>
						</g>
					</g>
					<g>
						<path class="st3" d="M143.0639343,117.9075928l-66.1981735,40.981781
							c-3.0343018,1.7651978-7.9693604,1.6907349-11.0227356-0.0730591l-63.541172-38.3638306
							c-1.4206238-0.8198242-2.1751404-1.8922729-2.2802429-2.8149719l-0.004425,10.141571
							c-0.0426636,1.8425903,0.7089233,2.4769592,2.284668,3.3888245l63.541172,38.5412292
							c3.0533752,1.7630005,7.9884338,1.7841797,11.0227356,0.0211792l66.1981735-40.8321228
							c1.5483398-0.9001465,2.2922974-2.0418701,2.2532349-2.9638977v-11.0621948
							C145.3876648,115.7926941,144.6422424,116.9884949,143.0639343,117.9075928z"/>
					</g>
					<g>
						<g>
							<path class="st4" d="M124.069252,112.8747864L75.6484451,83.5990601
								c-1.2132568-0.703064-2.7080078-0.703064-3.9205933,0.0029297L21.4838314,115.462738
								c-1.2549133,0.7299805-1.2585754,2.5419617-0.0058289,3.2748718l47.2953491,28.7683411
								c1.5991821,0.9359436,3.5789795,0.9446716,5.1851196,0.0183105l50.1071167-31.6585999
								C125.2175674,115.2021179,125.2190933,113.5405579,124.069252,112.8747864z"/>
						</g>
					</g>
				</g>
			</g>
		</g>
		<path class="st1" d="M68.9400101,159.928009c-1.1306458-0.2224731-2.1965942-0.5916138-3.0969849-1.1116943L2.3018849,120.4524841
			c-1.4206543-0.8198547-2.1751709-1.8922729-2.2802429-2.8150024l-0.004425,10.1416016
			c-0.0426636,1.8425598,0.7088928,2.4769592,2.284668,3.3887939l63.5411415,38.5412598
			c0.9003906,0.5198364,1.9663391,0.8841553,3.0969849,1.0999756V159.928009z"/>
	</g>
	<g>
		<g>
			<g>
				<path class="st3" d="M45.0596352,85.9857483c0.0022278-0.6899109,0.0037231-1.3783264,0.0057983-2.0697632l0.0219727-7.726532
					c0.0058289-1.9865723,0.0108948-3.9616394,0.0167236-5.9016113l0.0101624-3.6961975
					c-0.14505-0.2524414-0.2500305-0.4975586-0.3317566-0.7323608c-0.0247803-0.072876-0.0371704-0.1326294-0.0553894-0.2026978
					c-0.0430298-0.1560669-0.0708008-0.2961731-0.0796204-0.4259644c-0.0021057-0.0334778-0.0203247-0.0802307-0.0203247-0.1123352
					c-0.0292664,10.2485962-0.0584106,20.4955444-0.0875244,30.743988c0,0.0014954,0.1735535-0.0961914,0.4930725-0.2785645
					c0.0028381-1.2150879,0.0064087-2.4490051,0.0101318-3.6961975L45.0596352,85.9857483z"/>
			</g>
			<g>
				<path class="st5" d="M70.9201126,102.5953979c0.0007324-0.3557739,0.0022278-0.7073975,0.0029907-1.0588379l0,0
					L70.9201126,102.5953979z"/>
			</g>
			<g>
				<path class="st5" d="M69.9909134,103.3743591c0.0189514-0.0203247,0.027771-0.032135,0.0409241-0.0466003
					c-0.0773926,0.0743713-0.1532593,0.1515808-0.2443848,0.2041626
					C69.8859024,103.4707031,69.9041214,103.4532166,69.9909134,103.3743591z"/>
			</g>
			<g>
				<circle class="st5" cx="70.6261673" cy="96.6573486" r="0.0003662"/>
			</g>
			<g>
				<path class="st6" d="M71.5626907,96.2240601c0.0159607-0.0073242,0.0334473-0.0116577,0.0488281-0.0189819
					c0.0758667-0.0349426,0.1495056-0.072876,0.2216492-0.1151733l-0.0007324,0.0014954
					C71.7493973,96.1351624,71.6596146,96.1788025,71.5626907,96.2240601z"/>
			</g>
			<g>
				<path class="st6" d="M70.9828262,96.5799866c-0.0335999-0.0116577-0.0576477-0.0189514-0.0970764-0.0321045
					c0.0227051-0.0014954,0.0510864,0.0161133,0.0730286,0.0247803
					C70.966713,96.5741577,70.9755325,96.5771484,70.9828262,96.5799866z"/>
			</g>
			<g>
				<path class="st6" d="M70.6749954,96.4793091L70.6749954,96.4793091c0.0700378,0.0219727,0.1408386,0.0437622,0.2107544,0.068573
					c-0.0050659,0-0.0108948-0.0043335-0.0152283-0.0058289C70.8055496,96.5202332,70.7407303,96.4997864,70.6749954,96.4793091z"/>
			</g>
			<g>
				<path class="st6" d="M70.9231033,101.5365601c0.0043335-1.3755188,0.0079041-2.6766357,0.0101318-3.591217
					L70.9231033,101.5365601L70.9231033,101.5365601z"/>
			</g>
			<g>
				<path class="st6" d="M70.6268997,96.6573486c0.0766296-0.0321045,0.1538391-0.0627136,0.2297363-0.0978088
					c0.0087891-0.0028381,0.0197144-0.0116577,0.0291138-0.0116577
					C70.7997208,96.5858154,70.7129288,96.6207581,70.6268997,96.6573486L70.6268997,96.6573486z"/>
			</g>
			<g>
				<path class="st7" d="M70.6268997,96.4881287l-0.0007324,0.16922h0.0007324
					c0.0860291-0.0365906,0.172821-0.0715332,0.2588501-0.1094666c-0.0699158-0.0248108-0.1407166-0.0466003-0.2107544-0.068573
					C70.6575089,96.4822998,70.6451187,96.4866333,70.6268997,96.4881287z"/>
			</g>
			<g>
				<path class="st5" d="M71.2651443,96.3393555c-0.0022583,0-0.0044861,0.0013428-0.0073242,0.0013428
					c-0.1626587,0.0555725-0.351593,0.1036682-0.5828247,0.1386108c0.0657349,0.0204773,0.1305542,0.0409241,0.1955261,0.0627441
					c0.0043335,0.0014954,0.0101624,0.0058289,0.0152283,0.0058289c0.2443542-0.1093445,0.4857483-0.2246399,0.725769-0.342804
					c-0.0153809,0.0073242-0.0328674,0.0116577-0.0488281,0.0189819
					C71.4736404,96.2634888,71.3737259,96.3029175,71.2651443,96.3393555z"/>
			</g>
			<g>
				<path class="st3" d="M60.7204933,87.1935425c0.036438,0.2524109,0.0729065,0.5046997,0.1254578,0.7571106
					c0.0313721,0.1487732,0.0736389,0.2975464,0.1108398,0.4463196c0.0554199,0.227478,0.1108398,0.4536133,0.177887,0.6782837
					c0.0467529,0.1575623,0.1021729,0.3106689,0.1546021,0.465271c0.0715332,0.2114868,0.142334,0.4230042,0.2225647,0.6301575
					c0.0144653,0.0379639,0.0313721,0.0729065,0.0466003,0.1108398c0.0591431,0.1502686,0.1211243,0.2975464,0.1846008,0.4434814
					c0.0582581,0.1356201,0.1151733,0.2712402,0.1771545,0.4040222c0.0897827,0.19104,0.1859741,0.3749084,0.2823181,0.5586243
					c0.0619812,0.1181641,0.1217041,0.2406311,0.1867065,0.355957c0.109314,0.1954956,0.2246399,0.3777466,0.3390503,0.561615
					c0.0576477,0.0903625,0.1123352,0.1867065,0.1699829,0.274231c0.1758118,0.263916,0.3559265,0.5118713,0.5389099,0.739502
					c-0.0028381,1.0370483-0.0073242,2.5729675-0.0116577,4.1541748c-0.0007324,0.0554199-0.0007324,0.1036377-0.0007324,0.1502686
					c0,0.0890198-0.0007629,0.1765442-0.0007629,0.265564c0,0.0466003,0,0.0787048,0,0.0787048
					c-0.0013428,0.3018799,0.0263062,0.6125488,0.0766296,0.926239c0.0161438,0.1021423,0.0503235,0.2071533,0.0715332,0.3121643
					c0.0443726,0.2099915,0.0860596,0.4230042,0.1502686,0.634491c0.0385437,0.1254883,0.0926208,0.2479553,0.1377258,0.3734131
					c0.0685425,0.1895447,0.1320496,0.3807373,0.2144814,0.5674438c0.0584106,0.1326599,0.1312866,0.259613,0.1961365,0.3894043
					c0.0882568,0.1735535,0.1714478,0.3501282,0.2698975,0.5193481c0.0080566,0.0131531,0.0174866,0.0248108,0.0255432,0.0379333
					c-0.0014954-0.0379333-0.0014954-0.0773621-0.0014954-0.1167908c0.0007324-0.0539246,0.0037231-0.1239929,0.0116577-0.2085266
					c-0.0094299,0.1065063-0.0124207,0.2115173-0.0101624,0.3266602c0.0386658,0.0642395,0.0831909,0.1239929,0.122467,0.1867065
					c0.1560974,0.2494507,0.3202515,0.4915771,0.497406,0.7207031c0.027771,0.0349426,0.0583801,0.0685425,0.0860291,0.1035156
					c0.0052185-0.2917175,0.0533142-0.5426636,0.1737061-0.8869324c-0.1743164-0.113678-0.351593-0.223175-0.5310059-0.3281555
					c0-0.0014954-0.0014954-0.0028381-0.0014954-0.0028381c0.0088196,0.0057983,0.0204773,0.0116272,0.0298767,0.0174561
					c0.1743164,0.0933533,0.3369751,0.2056885,0.5026245,0.3135376c-0.1181335,0.3399353-0.1677246,0.598053-0.1737061,0.8869324
					c0.0474854,0.0597534,0.096344,0.1166382,0.1451721,0.1735535c0.1882019,0.2231445,0.3858337,0.4331665,0.5914917,0.6271973
					c0.0824585,0.0788574,0.1641541,0.160553,0.2494507,0.2334595c0.2888794,0.2494202,0.5863953,0.4769287,0.8978271,0.656311
					c0.2304688,0.1342773,0.4543762,0.2304688,0.67453,0.3121643c0.050354,0.0189819,0.1006775,0.036438,0.1510315,0.0525818
					c0.0488281,0.0159912,0.0940857,0.0189819,0.1421814,0.0321045c0.0065918-0.132782,0.0219727-0.2509155,0.0409241-0.3589172
					c-0.0189514,0.1080017-0.0343323,0.2261353-0.0409241,0.3589172c0.0905151,0.0248108,0.1788025,0.0437622,0.2663269,0.0582581
					c0.1020203,0.0189819,0.2055359,0.0409241,0.3033752,0.0480957c0.1209717,0.0073242,0.2325439-0.0058289,0.3463745-0.0159912
					c0.0905151-0.0072937,0.1838684-0.0101318,0.2691345-0.0291138c0.1101074-0.0247803,0.2085266-0.0700378,0.3092041-0.1123352
					c0.0766296-0.0335999,0.1575928-0.0568848,0.228241-0.0991516c0.096344-0.0584106,0.178772-0.137146,0.2633057-0.2130127
					c0.059906-0.0539246,0.1269836-0.0976868,0.1809082-0.1589355c0.009552-0.0117798,0.0153809-0.027771,0.0247803-0.0379333
					c-0.0014954-0.0467529-0.0022278-0.0803528-0.0035706-0.1254578c0.0013428,0.045105,0.0020752,0.0787048,0.0035706,0.1239624
					c0.1057434-0.1269531,0.201355-0.2669067,0.2808228-0.4273376c0.0212097-0.0437622,0.0371704-0.0920105,0.0561523-0.1371155
					c0.0627441-0.1474304,0.114563-0.3063354,0.1553345-0.4785461c0.0146484-0.0612488,0.0298767-0.1224976,0.0415344-0.1880798
					c0.0416565-0.2304688,0.0700378-0.4725952,0.0708008-0.7396545l0.0029907-1.0588379l0.0101318-3.591217
					c1.5169678-0.1342773,2.8582764-1.8043518,2.8662109-4.618103c0.0014954-0.4915466-0.0451355-0.9977722-0.1217346-1.5097961
					c-0.0255432-0.1662292-0.0693054-0.3354797-0.1021729-0.5032043c-0.0678101-0.3456421-0.1422119-0.6929016-0.241394-1.0415344
					c-0.0561523-0.1983643-0.1254578-0.3952026-0.1917725-0.5935669c-0.1072388-0.3194885-0.2216492-0.638855-0.3522034-0.9555054
					c-0.0839539-0.2026978-0.1737061-0.4040222-0.2670593-0.6052246c-0.0130005-0.0292664-0.0291443-0.0554199-0.0430298-0.0846863
					c0.068573,0.1590576,0.1297913,0.3063354,0.1846313,0.4419556c-0.0569153-0.141449-0.1320496-0.3135071-0.2043457-0.4812317
					c-0.0400391-0.0847168-0.0860291-0.1677551-0.1275635-0.2539368c-0.0007324,0.0176392-0.0014954,0.0321045-0.0014954,0.0482483
					c0-0.0073242-0.0007324-0.0118103-0.0007324-0.0176392c0.0007324-0.0174561-0.0007629-0.0247803-0.0013428-0.036438
					c-0.086792-0.1750488-0.1707458-0.3514404-0.2640991-0.5236816c-0.1290283-0.2362976-0.2633057-0.4681091-0.4032898-0.6985779
					c-0.1618958-0.2640686-0.3318787-0.5236816-0.5076904-0.7774353c-0.044342-0.0424194-0.0925903-0.0832214-0.1376953-0.1254883
					c0.5097656,0.6942749,0.9444275,1.4542236,1.3156128,2.2331848c0.3413086,0.7177124,0.6127014,1.4483948,0.807312,2.1850586
					c0.0920105,0.3471375,0.1853638,0.6957703,0.2400208,1.0400391c0.0751343,0.4682617,0.1130981,0.9305725,0.1123352,1.3813477
					c-0.0022278,0.8182373-0.1502686,1.5081482-0.3908997,2.09021l0,0
					c-0.0072937,0.0422974-0.0138855,0.0817261-0.0197144,0.1151733c-0.0292664,0.0495911-0.0576477,0.0978394-0.0860291,0.1663818
					c-0.1130676,0.2507935-0.1656494,0.2712708-0.2582397,0.4303284c-0.1399536,0.2158508-0.183136,0.2333069-0.2932129,0.3661194
					c-0.1589355,0.1763916-0.1451721,0.1254578-0.2712402,0.2333069c-0.1882019,0.1473999-0.1998596,0.1560669-0.3392334,0.2392578
					l0,0c-0.0721436,0.0422974-0.1457825,0.0802307-0.2216492,0.1151733
					c-0.2400208,0.1181641-0.4814148,0.2334595-0.725769,0.342804c0.0394287,0.0131531,0.0634766,0.0204468,0.0970764,0.0321045
					c-0.0072937-0.0028381-0.0161133-0.0058289-0.0240479-0.0073242c-0.0219421-0.008667-0.0503235-0.0262756-0.0730286-0.0247803
					c-0.0093994,0-0.0203247,0.0088196-0.0291138,0.0116577c-0.0758972,0.0350952-0.1531067,0.0657043-0.2297363,0.0978088l0,0
					l-0.0028381,0.7992554l-0.0118103,4.2608337c-0.0005798,0.2099915-0.0210571,0.4040222-0.0553894,0.5834045
					c-0.0364685,0.1925354-0.0896301,0.3691101-0.1604309,0.5250244c-0.0174866,0.0394287-0.0445251,0.0657349-0.0634766,0.1021729
					c-0.045105,0.0845337-0.094696,0.1662598-0.1502686,0.237793c-0.0466003,0.0597534-0.0976868,0.1123352-0.1508484,0.1619263
					c-0.0131531,0.0144653-0.0219727,0.0262756-0.0409241,0.0466003c-0.086792,0.0788574-0.105011,0.096344-0.2034607,0.1575623l0,0
					c-0.182373,0.0948486-0.5251465,0.2611084-1.0612488,0.2319641c-0.1530762-0.0087891-0.3164978-0.027771-0.5039368-0.0758667
					c-0.0729065-0.0189819-0.1480408-0.0510864-0.2224121-0.0773621c-0.3617554-0.1283264-0.7372742-0.3383179-1.0917358-0.6183777
					c-0.1175232-0.0920105-0.233429-0.1896973-0.3442688-0.2947083c-0.3398132-0.3253174-0.6258545-0.7088928-0.8817139-1.112915
					c-0.2866211-0.4521484-0.506958-0.9335327-0.6622925-1.4281006c-0.1203918-0.3820801-0.1976013-0.761322-0.2254028-1.1362305
					c-0.0597229,0.2522888-0.1174011,0.5178528-0.159668,0.7949219c0.040802-0.2770691,0.0941162-0.5323181,0.159668-0.7992554
					c-0.0072937-0.0978394-0.036438-0.1983643-0.036438-0.2931824c0,0.0510559,0.0430298,0.1078186,0.0670776,0.1618958
					c-0.0240479-0.0540771-0.0670776-0.1108398-0.0670776-0.1618958c0-0.0744019,0-0.1487732,0.0007629-0.223175
					c0.0043335-1.7051697,0.0093994-3.4089661,0.0146179-5.1141357c-0.0219421-0.0276184-0.0371704-0.0569153-0.0591431-0.0845337
					c-0.1684875-0.2188416-0.3018494-0.4376526-0.4551086-0.6578064c-1.3272743-1.8992004-2.1208534-3.8188477-2.2929115-5.7208862
					c-0.0116577-0.1269531-0.0073242-0.2406311-0.0124207-0.3632507c-0.0335999,0.1386108-0.0671997,0.2815552-0.0991821,0.4244995
					c0.0021057-0.0101624,0.0028381-0.0159912,0.0050964-0.0262756c0.0276184-0.1196594,0.0627136-0.2697754,0.0940857-0.3982239
					c-0.0146179-0.3456421-0.009552-0.666626,0.0152588-0.9656372c0.0503235-0.602417,0.1575623-1.1056213,0.2749634-1.4104614
					c0.3698425-0.9583435,0.7847595-1.4863586,1.5308533-1.9502869l0,0h0.0007629
					c0.1684875-0.0875244,0.2450905-0.1253052,0.3347206-0.1589355c0.0627441-0.0247803,0.1320496-0.0467529,0.2479553-0.0816956
					c0.5317383-0.1604004,1.1348877-0.1720581,1.789093-0.0247803c-0.0189514-0.0101624,0.0263062,0.0029907,0.0518494,0.0159607
					c0.1297913,0.0307922,0.2631836,0.0744019,0.3959656,0.1181641c0.1072388,0.0350952,0.2099915,0.0510864,0.3194885,0.0948486
					c0.296051,0.1152954,0.5973206,0.2537842,0.9064941,0.4318237c0.3931274,0.227478,0.7767029,0.4943848,1.1472778,0.7949219
					c0.3486328,0.2843933,0.6826172,0.6023865,1.0049438,0.9408569c0.0343628,0.0262756,0.0685425,0.0510864,0.1035156,0.0816956
					c0.0409241,0.0379333,0.096344,0.0948486,0.1539917,0.1546021c0.026886,0.027771,0.0604858,0.064209,0.0933533,0.1006775
					c0.0422668,0.0452576,0.0860291,0.0948486,0.1326294,0.1472778c0.0722961,0.0831909,0.1532593,0.1780396,0.2451172,0.291687
					c0.0146484,0.0189819,0.0291138,0.0351257,0.0444946,0.0540771c0.1144409,0.141449,0.2312317,0.2917175,0.3471375,0.4491577
					c-0.0197144-0.0276489-0.0372009-0.0597534-0.0576477-0.0888977c-0.1144104-0.1590576-0.2340698-0.3121643-0.3536987-0.4667664
					c-0.2173462-0.2815552-0.4427185-0.5527954-0.6767883-0.8140259c-0.1305542-0.1457825-0.2610779-0.2902222-0.3959656-0.428833
					c-0.2539063-0.2611084-0.5170898-0.5017395-0.7847595-0.7337036c-0.1247253-0.1078186-0.2458496-0.2246399-0.374176-0.3251648
					c-0.3989563-0.3179932-0.808075-0.6112061-1.2304688-0.8548279c-0.2252502-0.1297913-0.4483948-0.2450867-0.6687012-0.3471069
					c-0.0729065-0.0335999-0.1437073-0.0569153-0.2165833-0.0875244c-0.1401062-0.0584106-0.2800598-0.1196594-0.4171753-0.1677551
					c-0.0044861-0.0014954-0.0095825-0.0029907-0.013916-0.0044861c-0.1312866-0.045105-0.2567444-0.0698853-0.3850403-0.1049805
					l0,0c-0.114563-0.0306396-0.2319641-0.0700684-0.3442993-0.0918579
					c-0.0706482-0.0146484-0.1386108-0.0218201-0.2085266-0.0336304c-0.1684875-0.026123-0.334137-0.045105-0.4960327-0.0539246
					c-0.0764771-0.0028381-0.1523438-0.004303-0.2267456-0.004303c-0.1598206,0-0.3144264,0.0116272-0.4660072,0.0306091
					c-0.0606689,0.008667-0.1226501,0.0116577-0.1824036,0.0232849c-0.2049255,0.0364685-0.4040222,0.0860596-0.5922241,0.1575928
					c0,0-0.0020752,0.0014954-0.0035706,0.0014954c-0.0095825,0.0043335-0.0189819,0.0101624-0.0285339,0.0130005
					c-0.2938232,0.1152954-0.5652161,0.2698975-0.8124084,0.4639282c-0.0088196,0.0073242-0.0189819,0.0131531-0.0285339,0.0204468
					l-0.0005798,0.0013428c-0.050354,0.0467529-0.0796204,0.0788879-0.1051636,0.1138306
					c0.0037231-0.0073242,0.0058289-0.0146484,0.009552-0.0204773c-0.0700378,0.0715637-0.1094666,0.1313171-0.1654968,0.1985168
					c0.0377808-0.0452576,0.0663147-0.0948486,0.1057434-0.1371155c0.0159912-0.0161438,0.0291443-0.0350952,0.0443726-0.0525818
					c-0.0058289,0.0043335-0.0108948,0.0101624-0.0159912,0.0146484c-0.1902771,0.1720581-0.3639832,0.3660889-0.5193481,0.5862732
					c-0.0167236,0.0234375-0.035675,0.0437622-0.0516663,0.0671997c-0.1553345,0.2333069-0.2866211,0.4973755-0.4011841,0.7802734
					c-0.0218201,0.0525818-0.0437927,0.1065063-0.0635071,0.1619263c-0.1049805,0.287384-0.1887817,0.5965576-0.2494202,0.9306946
					c-0.0101624,0.0582581-0.0167236,0.1181641-0.0261536,0.1764221c-0.0540771,0.3574219-0.0912476,0.7323303-0.0925903,1.1378479
					c-0.0007629,0.3660889,0.0225525,0.7395325,0.0648193,1.1157837
					C60.6759987,86.9440918,60.7022743,87.0695496,60.7204933,87.1935425z M73.1153336,89.8147583
					c0.0058289,0.0306091,0.009552,0.0525818,0.0103149,0.0525818c0.0035706,0.0334473,0.0050659,0.0670471,0.008667,0.1005249
					C73.1256485,89.8934631,73.1198196,89.8453674,73.1153336,89.8147583z M64.5560684,81.1809387l0.0021057,0.0014954
					c-0.0014954-0.0014954-0.0028381-0.0014954-0.0050964-0.0028381L64.5560684,81.1809387z M61.3535194,82.9050903
					c0.0007324-0.0028381,0.0050659-0.008667,0.0058289-0.0116577c-0.0028381,0.0116577-0.0058289,0.0219727-0.0065918,0.0291138
					C61.3535194,82.9182434,61.3527565,82.9095764,61.3535194,82.9050903z"/>
			</g>
			<g>
				<path class="st5" d="M62.1273842,81.7468872l0.0020752-0.0013428c-0.0020752,0.0013428-0.0050659,0.0028381-0.0079041,0.0058289
					c-0.0022583,0.0013428-0.0044861,0.0028381-0.0073242,0.0058289c-0.0262756,0.0203247-0.0488586,0.0480957-0.0743713,0.0714111
					c-0.0022583,0.0029907-0.0043335,0.0073242-0.0065918,0.0116272
					C62.0639076,81.8082886,62.0960121,81.7775269,62.1273842,81.7468872z"/>
			</g>
			<g>
				<circle class="st5" cx="63.7756386" cy="82.2326355" r="0.0002747"/>
			</g>
			<g>
				<path class="st5" d="M66.1474075,81.9672241c0.0167236,0.0043335,0.0349426,0.0116272,0.0518494,0.0159607
					C66.1737137,81.9702148,66.1284561,81.9570618,66.1474075,81.9672241z"/>
			</g>
			<g>
				<polygon class="st5" points="65.5187454,81.2189026 65.5260391,81.2160645 65.5260391,81.2145691 				"/>
			</g>
			<g>
				<path class="st5" d="M64.3583145,81.9920044c-0.1159058,0.0349426-0.1852112,0.0569153-0.2479553,0.0816956
					c-0.1151772,0.0466309-0.2282448,0.0976868-0.3354836,0.1589355
					C63.9557533,82.1276245,64.1541214,82.0532532,64.3583145,81.9920044z"/>
			</g>
			<g>
				<path class="st5" d="M71.833168,96.0899048l-0.0007324,0.0014954L71.833168,96.0899048L71.833168,96.0899048
					c0.2552795-0.1473999,0.4857483-0.3369446,0.6885986-0.565918
					C72.3189163,95.7529602,72.0876846,95.9425049,71.833168,96.0899048z"/>
			</g>
			<g>
				<path class="st6" d="M65.9037857,81.3238831c-0.1282959-0.045105-0.2522583-0.0743713-0.3777466-0.1078186l-0.0072937,0.0028381
					C65.6470413,81.2539978,65.7724991,81.2787781,65.9037857,81.3238831z"/>
			</g>
			<g>
				<path class="st6" d="M64.1103592,82.0737c-0.0896301,0.0336304-0.1662331,0.0714111-0.3347206,0.1589355h-0.0007629
					C63.8821144,82.1713867,63.995182,82.1203308,64.1103592,82.0737z"/>
			</g>
			<g>
				<path class="st3" d="M89.6973648,121.7417297c-0.0270386-0.0321045-0.0526123-0.0655518-0.0794678-0.0991821
					c-0.1239624-0.1575623-0.246582-0.3296509-0.3596802-0.5251465l-7.6133423-4.3948059
					c-1.177887-0.6797791-2.3659363-1.3668518-3.5701294-2.0610962c-1.0451355-0.6038818-2.0989075-1.2122498-3.1578979-1.8233337
					l-3.9813538-2.2988892c-1.2611084-0.7278442-2.5250244-1.4572144-3.7897034-2.1878967l-4.0608253-2.3441467
					c-1.0736389-0.619873-2.1420593-1.236908-3.2068787-1.8524475c-5.1789856-2.9902954-10.2266541-5.9032288-14.8453369-8.5710754
					c-0.3180237,0.182373-0.4915771,0.2785645-0.4930725,0.2785645c7.6243896,4.4022827,15.2487793,8.8030396,22.8724098,13.2053223
					c7.6243896,4.4020996,15.2486572,8.802887,22.8730469,13.2051392c-0.0546875-0.0321045-0.1123657-0.0788574-0.1691284-0.1226196
					c-0.0189209-0.0144958-0.0358276-0.0233154-0.0548096-0.0393066
					C89.9409561,122.01297,89.8190689,121.8861694,89.6973648,121.7417297z"/>
			</g>
			<g>
				<path class="st6" d="M70.3483353,81.1606445c0.5469666,0.3150024,1.0917053,0.6300354,1.6365967,0.9436951
					C71.4321365,81.7863464,70.7450333,81.3896179,70.3483353,81.1606445z"/>
			</g>
			<g>
				<path class="st6" d="M71.1148758,85.6750793c-0.0073242-0.0101624-0.0138855-0.0203247-0.0212097-0.0321045
					c-0.1159058-0.1574402-0.2326965-0.3077087-0.3471375-0.4491577
					C70.8545303,85.3294373,70.9813309,85.495697,71.1148758,85.6750793z"/>
			</g>
			<g>
				<path class="st6" d="M72.5217667,95.5239868c-0.2028503,0.2289734-0.4333191,0.4185181-0.6885986,0.565918
					c0.1393738-0.0831909,0.1510315-0.0918579,0.3392334-0.2392578c0.1260681-0.1078491,0.1123047-0.0569153,0.2712402-0.2333069
					c0.1100769-0.1328125,0.1532593-0.1502686,0.2932129-0.3661194c0.0925903-0.1590576,0.1451721-0.1795349,0.2582397-0.4303284
					c0.0283813-0.0685425,0.0567627-0.1167908,0.0860291-0.1663818c0.0058289-0.0334473,0.0124207-0.072876,0.0197144-0.1151733
					c-0.0234375,0.0569153-0.0328369,0.1269836-0.0583801,0.1809082
					C72.8995132,95.0265808,72.7244339,95.2949829,72.5217667,95.5239868z"/>
			</g>
			<g>
				<path class="st6" d="M72.3313065,87.7887573c0-0.0161438,0.0007629-0.0306091,0.0014954-0.0482483
					c-0.0014954-0.0013428-0.0022278-0.0028381-0.0035706-0.0058289c0.0005798,0.0116577,0.0020752,0.0189819,0.0013428,0.036438
					C72.330574,87.776947,72.3313065,87.7814331,72.3313065,87.7887573z"/>
			</g>
			<g>
				<path class="st6" d="M72.4800797,88.0337219c-0.0058289-0.0131531-0.0131531-0.0263062-0.0197144-0.0392761
					c0.0722961,0.1677246,0.1474304,0.3397827,0.2043457,0.4812317
					C72.6098709,88.3400574,72.5486526,88.1927795,72.4800797,88.0337219z"/>
			</g>
			<g>
				<path class="st6" d="M73.1153336,89.8147583c0.0044861,0.0306091,0.0103149,0.0787048,0.0189819,0.1531067
					c-0.0036011-0.0334778-0.0050964-0.0670776-0.008667-0.1005249
					C73.1248856,89.8673401,73.1211624,89.8453674,73.1153336,89.8147583z"/>
			</g>
			<g>
				<path class="st5" d="M70.702034,85.13974c-0.0918579-0.1136475-0.172821-0.2084961-0.2451172-0.291687
					c-0.0466003-0.0524292-0.0903625-0.1020203-0.1326294-0.1472778c-0.0328674-0.0364685-0.0664673-0.0729065-0.0933533-0.1006775
					c-0.0576477-0.0597534-0.1130676-0.1166687-0.1539917-0.1546021c-0.0349731-0.0306091-0.0691528-0.0554199-0.1035156-0.0816956
					c0.3683472,0.388031,0.7184448,0.8022461,1.0430298,1.245697c0.045105,0.0422668,0.0933533,0.0830688,0.1376953,0.1254883
					c-0.0137329-0.0189819-0.0255432-0.0394592-0.0392761-0.059906c-0.1335449-0.1793823-0.2603455-0.3456421-0.3683472-0.4812622
					C70.7311478,85.1748657,70.7166824,85.1587219,70.702034,85.13974z"/>
			</g>
			<g>
				<path class="st8" d="M63.0849648,106.0072327l4.0608253,2.3441467c1.264679,0.7306824,2.528595,1.4600525,3.7897034,2.1878967
					l3.9813538,2.2988892c1.0589905,0.611084,2.1127625,1.2194519,3.1578979,1.8233337
					c1.2041931,0.6942444,2.3922424,1.3813171,3.5701294,2.0610962c2.6255493,1.5154724,5.1825562,2.9916382,7.6140747,4.3948059
					c0,0,0-0.0319824,0-0.0918884c0.0007324-0.2946777,0.0015259-0.598053,0.0022583-0.894104
					c0.0007324-0.1356201,0.0007324-0.2785645,0.0014648-0.4391174c0.0028687-1.0428772,0.0058594-2.0917358,0.008667-3.1550598
					c0.0045166-1.3330994,0.0080566-2.8823242,0.0131836-4.540741c0-0.0422668,0-0.0831909,0.0007324-0.1254578
					c0.0043335-1.6773682,0.0095825-3.4628906,0.0146484-5.2496033c0.0050659-1.753418,0.0093994-3.5023499,0.0144653-5.2424622
					c0-0.0452576,0-0.0905151,0.0007324-0.1356201c0.0015259-0.4857483,0.0022583-0.9583435,0.0037842-1.4222717
					c0.0028076-1.0443726,0.0057983-2.09021,0.008606-3.1199646c0.0037842-1.2807922,0.0073242-2.3528137,0.0088501-3.1420593
					c0.0007324-0.150116,0.0014648-0.3018494,0.0014648-0.4521179c0.0013428-0.4346619,0.0021362-0.7496643,0.0028687-0.8897705
					c0-0.0306396,0-0.0612488,0-0.0918579c0,0-0.4324341-0.2494507-1.1151733-0.6433411
					c-0.3719482-0.2158203-0.8167114-0.4710999-1.3120117-0.7584534c-0.328186-0.1895447-0.6760254-0.3894043-1.0385742-0.5995789
					c-0.4295654-0.2479248-0.8751221-0.5046997-1.3112793-0.7569885c-0.4536133-0.2610779-0.9117432-0.5264893-1.3623657-0.7862549
					c-0.3165283-0.1822205-0.6243286-0.36026-0.9431152-0.5439758c-1.7861023-1.0313721-2.0507813-1.1844788-4.1017151-2.3689575
					c-2.0545349-1.1858215-2.3563843-1.3608704-4.1096497-2.3717651c-0.8788757-0.5090637-1.3653564-0.7891235-2.0618591-1.1916504
					c-0.5448914-0.3136597-1.0896301-0.6286926-1.6365967-0.9436951c-0.0984497-0.0569153-0.2355652-0.1371155-0.383728-0.2218018
					c-0.1465149-0.0845642-0.2930603-0.1692505-0.4389954-0.2537842c-0.3303833-0.19104-0.6767578-0.3908997-0.9656372-0.5571289
					c-0.2975464-0.1722107-0.5302429-0.306366-0.5826721-0.3369751l0,0
					c-0.0131531-0.0073242-0.0678101-0.0394287-0.1422119-0.0816956c-0.1102295-0.0642395-0.2203064-0.1269836-0.3303833-0.19104
					c-0.1466675-0.0846863-0.2772217-0.1605835-0.2772217-0.1605835c-1.3558044-0.7817688-2.7093506-1.5635681-4.0600624-2.3439941
					c-0.2218323-0.1282959-0.4399109-0.2537842-0.6615601-0.3807373c-0.2610779-0.1517639-0.5178528-0.3005066-0.7789307-0.4506226
					c-0.8736572-0.5047302-1.7467041-1.0080872-2.6139221-1.5083008c-0.3084412-0.1793823-0.6228333-0.3602905-0.9298096-0.5383301
					c-1.1356201-0.6548157-2.2594604-1.3039551-3.3753662-1.948761c-0.8292847-0.4784241-1.6439209-0.9480286-2.4585571-1.4191284
					c-0.2917175-0.1679077-0.5907288-0.3399658-0.8803711-0.5076904c-2.1820679-1.2602234-4.3132324-2.4899292-6.3546143-3.6684265
					l-0.0101624,3.6961975c-0.0058289,1.9399719-0.0108948,3.9150391-0.0167236,5.9016113l-0.0219727,7.726532
					c-0.0020752,0.6914368-0.0035706,1.3798523-0.0057983,2.0697632l-0.0167542,5.9017639
					c-0.0037231,1.2471924-0.0072937,2.4811096-0.0101318,3.6961975c4.6186829,2.6678467,9.6663513,5.58078,14.8453369,8.5710754
					C60.9429054,104.7703247,62.0113258,105.3873596,63.0849648,106.0072327z M60.6906166,84.5664978
					c0.0094299-0.0582581,0.0159912-0.1181641,0.0261536-0.1764221c0.0606384-0.334137,0.1444397-0.6433105,0.2494202-0.9306946
					c0.0197144-0.0554199,0.041687-0.1093445,0.0635071-0.1619263c0.114563-0.2828979,0.2458496-0.5469666,0.4011841-0.7802734
					c0.0159912-0.0234375,0.0349426-0.0437622,0.0516663-0.0671997c0.155365-0.2201843,0.329071-0.4142151,0.5193481-0.5862732
					c0.0050964-0.0044861,0.0101624-0.0103149,0.0159912-0.0146484c0.0073242-0.0058289,0.0146484-0.0146179,0.0219727-0.0204468
					c0.0255127-0.0233154,0.0480957-0.0510864,0.0743713-0.0714111c0.0028381-0.0029907,0.0050659-0.0044861,0.0073242-0.0058289
					c0.0028381-0.0029907,0.0058289-0.0044861,0.0079041-0.0058289c0.009552-0.0072937,0.0197144-0.0131226,0.0285339-0.0204468
					c0.2471924-0.1940308,0.5185852-0.3486328,0.8124084-0.4639282c0.009552-0.0028381,0.0189514-0.008667,0.0285339-0.0130005
					c0.0014954,0,0.0020752-0.0014954,0.0020752-0.0014954c0.1896973-0.0715332,0.3887939-0.1211243,0.5937195-0.1575928
					c0.0597534-0.0116272,0.1217346-0.0146179,0.1824036-0.0232849c0.1515808-0.0189819,0.3061867-0.0306091,0.4660072-0.0306091
					c0.0744019,0,0.1502686,0.0014648,0.2267456,0.004303c0.1618958,0.0088196,0.3275452,0.0278015,0.4960327,0.0539246
					c0.0699158,0.0118103,0.1378784,0.0189819,0.2085266,0.0336304c0.1152954,0.0232849,0.2334595,0.0553894,0.351593,0.0875244
					v0.0014954c0.1254883,0.0334473,0.2494507,0.0627136,0.3777466,0.1078186
					c0.0043335,0.0014954,0.0094299,0.0029907,0.013916,0.0044861c0.1371155,0.0480957,0.2770691,0.1093445,0.4171753,0.1677551
					c0.072876,0.0306091,0.1436768,0.0539246,0.2165833,0.0875244c0.2203064,0.1020203,0.4434509,0.2173157,0.6687012,0.3471069
					c0.4223938,0.2436218,0.8315125,0.5368347,1.2304688,0.8548279c0.1283264,0.1005249,0.2494507,0.2173462,0.374176,0.3251648
					c0.2676697,0.2319641,0.5308533,0.4725952,0.7847595,0.7337036c0.1348877,0.1386108,0.2654114,0.2830505,0.3959656,0.428833
					c0.2340698,0.2612305,0.4594421,0.5324707,0.6767883,0.8140259c0.1196289,0.1546021,0.2392883,0.3077087,0.3536987,0.4667664
					c0.0204468,0.0291443,0.0379333,0.0612488,0.0576477,0.0888977c0.0073242,0.0117798,0.0138855,0.0219421,0.0212097,0.0321045
					c0.0137329,0.0204468,0.0255432,0.0409241,0.0392761,0.059906c0.1758118,0.2537537,0.3457947,0.5133667,0.5076904,0.7774353
					c0.1399841,0.2304688,0.2742615,0.4622803,0.4032898,0.6985779c0.0933533,0.1722412,0.1773071,0.3486328,0.2640991,0.5236816
					c0.0013428,0.0029907,0.0020752,0.0044861,0.0035706,0.0058289c0.0415344,0.0861816,0.0875244,0.16922,0.1275635,0.2539368
					c0.0065613,0.01297,0.0138855,0.026123,0.0197144,0.0392761c0.0138855,0.0292664,0.0300293,0.0554199,0.0430298,0.0846863
					c0.0933533,0.2012024,0.1831055,0.4025269,0.2670593,0.6052246c0.1305542,0.3166504,0.2449646,0.6360168,0.3522034,0.9555054
					c0.0663147,0.1983643,0.1356201,0.3952026,0.1917725,0.5935669c0.0991821,0.3486328,0.173584,0.6958923,0.241394,1.0415344
					c0.0328674,0.1677246,0.0766296,0.3369751,0.1021729,0.5032043c0.0765991,0.5120239,0.12323,1.0182495,0.1217346,1.5097961
					c-0.0079346,2.8137512-1.3492432,4.4838257-2.8662109,4.618103c-0.0022278,0.9145813-0.0057983,2.2156982-0.0101318,3.591217
					c-0.0007629,0.3514404-0.0022583,0.703064-0.0029907,1.0588379c-0.0007629,0.2670593-0.0291443,0.5091858-0.0708008,0.7396545
					c-0.0116577,0.0655823-0.026886,0.1268311-0.0415344,0.1880798c-0.0407715,0.1722107-0.0925903,0.3311157-0.1553345,0.4785461
					c-0.0189819,0.045105-0.0349426,0.0933533-0.0561523,0.1371155c-0.0794678,0.1604309-0.1750793,0.3003845-0.2808228,0.4273376
					v0.0014954c-0.0093994,0.0101624-0.0152283,0.0261536-0.0247803,0.0379333
					c-0.0539246,0.0612488-0.1210022,0.105011-0.1809082,0.1589355c-0.0845337,0.0758667-0.1669617,0.1546021-0.2633057,0.2130127
					c-0.0706482,0.0422668-0.1516113,0.0655518-0.228241,0.0991516c-0.1006775,0.0422974-0.1990967,0.0875549-0.3092041,0.1123352
					c-0.0852661,0.0189819-0.1786194,0.0218201-0.2691345,0.0291138c-0.1138306,0.0101624-0.2254028,0.0233154-0.3463745,0.0159912
					c-0.0978394-0.0071716-0.201355-0.0291138-0.3033752-0.0480957c-0.0875244-0.0144958-0.1758118-0.0334473-0.2663269-0.0582581
					l0,0c-0.0480957-0.0131226-0.0933533-0.0161133-0.1421814-0.0321045
					c-0.050354-0.0161438-0.1006775-0.0335999-0.1510315-0.0525818c-0.2201538-0.0816956-0.4440613-0.177887-0.67453-0.3121643
					c-0.3114319-0.1793823-0.6089478-0.4068909-0.8978271-0.656311c-0.0852966-0.0729065-0.1669922-0.1546021-0.2494507-0.2334595
					c-0.205658-0.1940308-0.4032898-0.4040527-0.5914917-0.6271973c-0.0488281-0.0569153-0.0976868-0.1138-0.1451721-0.1735535l0,0
					c-0.0276489-0.0349731-0.0582581-0.068573-0.0860291-0.1035156c-0.1771545-0.229126-0.3413086-0.4712524-0.497406-0.7207031
					c-0.0392761-0.0627136-0.0838013-0.122467-0.122467-0.1867065v-0.0013428
					c-0.0080566-0.0131226-0.0174866-0.0247803-0.0255432-0.0379333c-0.0984497-0.16922-0.1816406-0.3457947-0.2698975-0.5193481
					c-0.0648499-0.1297913-0.1377258-0.2567444-0.1961365-0.3894043c-0.0824318-0.1867065-0.1459389-0.3778992-0.2144814-0.5674438
					c-0.045105-0.1254578-0.0991821-0.2479248-0.1377258-0.3734131c-0.064209-0.2114868-0.105896-0.4244995-0.1502686-0.634491
					c-0.0212097-0.105011-0.0553894-0.210022-0.0715332-0.3121643c-0.0503235-0.3136902-0.0779724-0.6243591-0.0766296-0.926239
					c0,0,0-0.0321045,0-0.0787048c0-0.0890198,0.0007629-0.1765442,0.0007629-0.265564c0-0.0466309,0-0.0948486,0.0007324-0.1502686
					c0.0043335-1.5812073,0.0088196-3.1171265,0.0116577-4.1541748c-0.1829834-0.2276306-0.3630981-0.4755859-0.5389099-0.739502
					c-0.0576477-0.0875244-0.1123352-0.1838684-0.1699829-0.274231c-0.1144104-0.1838684-0.2297363-0.3661194-0.3390503-0.561615
					c-0.0650024-0.1153259-0.1247253-0.237793-0.1867065-0.355957c-0.096344-0.1837158-0.1925354-0.3675842-0.2823181-0.5586243
					c-0.0619812-0.132782-0.1188965-0.2684021-0.1771545-0.4040222c-0.0634766-0.1459351-0.1254578-0.2932129-0.1846008-0.4434814
					c-0.0152283-0.0379333-0.032135-0.072876-0.0466003-0.1108398c-0.0802307-0.2071533-0.1510315-0.4186707-0.2225647-0.6301575
					c-0.0524292-0.1546021-0.1078491-0.3077087-0.1546021-0.465271c-0.0670471-0.2246704-0.122467-0.4508057-0.177887-0.6782837
					c-0.0372009-0.1487732-0.0794678-0.2975464-0.1108398-0.4463196c-0.0525513-0.2524109-0.0890198-0.5046997-0.1254578-0.7571106
					c-0.018219-0.1239929-0.0444946-0.2494507-0.0576477-0.3734131c-0.0422668-0.3762512-0.0655823-0.7496948-0.0648193-1.1157837
					C60.599369,85.2988281,60.6365395,84.9239197,60.6906166,84.5664978z"/>
			</g>
			<g>
				<path class="st3" d="M99.5323257,86.2440186l-8.6724854,5.0089722l-0.0882568,31.0882874l8.6724854-5.0076294
					c0.12323-0.0714111,0.182251-0.2333069,0.1829834-0.4536133c0.0285034-10.2484741,0.0584106-20.495575,0.086792-30.7425232
					C99.7138443,86.1375122,99.6563492,86.1724548,99.5323257,86.2440186z"/>
			</g>
			<g>
				<path class="st9" d="M90.8598404,91.2529907l8.6724854-5.0089722c0.1240234-0.0715637,0.182251-0.1065063,0.182251-0.1065063
					C92.0901871,81.73526,61.5935402,64.1278381,53.9691505,59.7257347c-0.191925-0.1108398-0.3632507-0.1401062-0.4872437-0.068573
					l0,0l-8.6724854,5.0090065l23.0249367,13.2926636L90.8598404,91.2529907z"/>
			</g>
			<g>
				<path class="st10" d="M67.8343582,77.9588318L67.8343582,77.9588318L44.8094215,64.6661682
					c-0.1399536,0.0802002-0.1793823,0.2960205-0.1618958,0.5644531c0.0088196,0.1297913,0.0365906,0.2698975,0.0796204,0.4259644
					c0.018219,0.0700684,0.0306091,0.1298218,0.0553894,0.2026978c0.0817261,0.2348022,0.1867065,0.4799194,0.3317566,0.7323608
					c2.0413818,1.1784973,4.1725464,2.4082031,6.3546143,3.6684265c0.3478699,0.2013245,0.6279297,0.3632507,0.8803711,0.5076904
					c0.8146362,0.4710999,1.6292725,0.9407043,2.4585571,1.4191284c1.1159058,0.6448059,2.2397461,1.2939453,3.3753662,1.948761
					c0.3069763,0.1780396,0.6213684,0.3589478,0.9298096,0.5383301c0.867218,0.5002136,1.7402649,1.0035706,2.6139221,1.5083008
					c0.2610779,0.150116,0.5178528,0.2988586,0.7789307,0.4506226c0.2216492,0.1269531,0.4397278,0.2524414,0.6615601,0.3807373
					c1.3507118,0.780426,2.704258,1.5622253,4.0600624,2.3439941c0,0,0.1305542,0.0758972,0.2772217,0.1605835
					c0.1100769,0.0640564,0.2201538,0.1268005,0.3303833,0.19104c0.0744019,0.0422668,0.1290588,0.0743713,0.1422119,0.0816956l0,0
					c0.0524292,0.0306091,0.2851257,0.1647644,0.5826721,0.3369751c0.2888794,0.1662292,0.6352539,0.3660889,0.9656372,0.5571289
					c0.1459351,0.0845337,0.2924805,0.16922,0.4389954,0.2537842c0.1481628,0.0846863,0.2852783,0.1648865,0.383728,0.2218018
					c0.396698,0.2289734,1.0838013,0.6257019,1.6365967,0.9436951c0.6965027,0.4025269,1.1829834,0.6825867,2.0618591,1.1916504
					c1.7532654,1.0108948,2.0551147,1.1859436,4.1096497,2.3717651c2.0509338,1.1844788,2.3156128,1.3375854,4.1017151,2.3689575
					c0.3187866,0.1837158,0.6265869,0.3617554,0.9431152,0.5439758c0.4506226,0.2597656,0.9087524,0.525177,1.3623657,0.7862549
					c0.4361572,0.2522888,0.8817139,0.5090637,1.3112793,0.7569885c0.3625488,0.2101746,0.7103882,0.4100342,1.0385742,0.5995789
					c0.4953003,0.2873535,0.9400635,0.5426331,1.3120117,0.7584534c0.6827393,0.3938904,1.1151733,0.6433411,1.1151733,0.6433411
					c0,0.0306091,0,0.0612183,0,0.0918579c-0.0007324,0.1401062-0.0015259,0.4551086-0.0028687,0.8897705
					c0,0.1502686-0.0007324,0.302002-0.0014648,0.4521179c-0.0015259,0.7892456-0.0050659,1.8612671-0.0088501,3.1420593
					c-0.0020752,0.9436951-0.0057983,1.99823-0.008606,3.1199646c-0.0015259,0.4639282-0.0022583,0.9365234-0.0037842,1.4222717
					c-0.0007324,0.045105-0.0007324,0.0903625-0.0007324,0.1356201c-0.0043335,1.6760254-0.0093994,3.4584351-0.0144653,5.2424622
					c-0.0050659,1.7867126-0.0103149,3.5722351-0.0146484,5.2496033c-0.0007324,0.0422668-0.0007324,0.0831909-0.0007324,0.1254578
					c-0.005127,1.6584167-0.008667,3.2076416-0.0131836,4.540741c-0.00354,1.2879639-0.0065308,2.3644714-0.008667,3.1550598
					c-0.0007324,0.160553-0.0007324,0.3034973-0.0014648,0.4391174c-0.0007324,0.4376526-0.0022583,0.7541504-0.0022583,0.894104
					c0,0.059906,0,0.0918884,0,0.0918884c0.1123657,0.1954956,0.2349854,0.3675842,0.3589478,0.5251465
					c0.0268555,0.0336304,0.0524292,0.0670776,0.0794678,0.0991821c0.1217041,0.1444397,0.2435913,0.2712402,0.3638306,0.3690796
					c0.0189819,0.0159912,0.0358887,0.0248108,0.0548096,0.0393066c0.2581177,0.1984863,0.4966431,0.2845154,0.6555786,0.1911621
					l0.0882568-31.0882874L67.8343582,77.9588318z"/>
			</g>
			<g>
				<path class="st9" d="M68.1647415,98.4923096c-0.0007324,0.0948486,0.0422668,0.1968689,0.1254883,0.3003845
					C68.2070084,98.6891785,68.1640091,98.5856628,68.1647415,98.4923096
					c0.0043335-1.779541,0.0101624-3.559082,0.0144958-5.3372803c-1.6664734-2.1398315-2.6123962-4.3145752-2.806427-6.4647217
					c-0.1093445-1.2062683,0.0816956-2.2303162,0.2779541-2.7393494c0.3200989-0.829895,0.688446-1.333252,1.2639465-1.7547607
					c-0.1094971-0.0437622-0.2122498-0.0597534-0.3194885-0.0948486c-0.132782-0.0437622-0.2661743-0.0873718-0.3959656-0.1181641
					c-0.0169067-0.0043335-0.0351257-0.0116272-0.0518494-0.0159607c-0.6542053-0.1472778-1.2573547-0.1356201-1.789093,0.0247803
					c-0.2041931,0.0612488-0.4025612,0.1356201-0.5834389,0.2406311l0,0
					c-0.7460938,0.4639282-1.1610107,0.9919434-1.5308533,1.9502869c-0.1174011,0.3048401-0.2246399,0.8080444-0.2749634,1.4104614
					c-0.0248108,0.2990112-0.0298767,0.6199951-0.0152588,0.9656372l0,0
					c0.0050964,0.1226196,0.0007629,0.2362976,0.0124207,0.3632507c0.1720581,1.9020386,0.9656372,3.8216858,2.2929115,5.7208862
					c0.1532593,0.2201538,0.2866211,0.4389648,0.4551086,0.6578064c0.0219727,0.0276184,0.0372009,0.0569153,0.0591431,0.0845337
					c-0.0052185,1.7051697-0.0102844,3.4089661-0.0146179,5.1141357c-0.0007629,0.0744019-0.0007629,0.1487732-0.0007629,0.223175
					c0,0.0510559,0.0430298,0.1078186,0.0670776,0.1618958c-0.0240479-0.0540771-0.0670776-0.1108398-0.0670776-0.1618958
					c0,0.0948181,0.0291443,0.195343,0.036438,0.2931824c0,0.0013428,0,0.0028381,0,0.0043335
					c0.0278015,0.3749084,0.105011,0.7541504,0.2254028,1.1362305c0.1553345,0.4945679,0.3756714,0.9759521,0.6622925,1.4281006
					c0.2558594,0.4040222,0.5419006,0.7875977,0.8817139,1.112915c0.1108398,0.105011,0.2267456,0.2026978,0.3442688,0.2947083
					c0.3544617,0.2800598,0.7299805,0.4900513,1.0917358,0.6183777c0.0743713,0.0262756,0.1495056,0.0583801,0.2224121,0.0773621
					c0.187439,0.0480957,0.3508606,0.0670776,0.5039368,0.0758667c0.5361023,0.0291443,0.8788757-0.1371155,1.0612488-0.2319641l0,0
					c0.0911255-0.0525818,0.1669922-0.1297913,0.2443848-0.2041626c0.0531616-0.0495911,0.104248-0.1021729,0.1508484-0.1619263
					c0.0555725-0.0715332,0.1051636-0.1532593,0.1502686-0.237793c0.0189514-0.036438,0.04599-0.0627441,0.0634766-0.1021729
					c-0.1465454-0.109314-0.2894897-0.2289734-0.4258423-0.3587646
					C68.8772354,101.4212341,68.1683426,99.8605042,68.1647415,98.4923096z"/>
			</g>
			<g>
				<path class="st11" d="M68.968483,83.4229431c-0.370575-0.3005371-0.7541504-0.5674438-1.1472778-0.7949219
					c-0.3091736-0.1780396-0.6104431-0.3165283-0.9064941-0.4318237c-0.5755005,0.4215088-0.9438477,0.9248657-1.2639465,1.7547607
					c-0.1962585,0.5090332-0.3872986,1.5330811-0.2779541,2.7393494c0.1940308,2.1501465,1.1399536,4.3248901,2.806427,6.4647217
					c-0.0043335,1.7781982-0.0101624,3.5577393-0.0144958,5.3372803c-0.0007324,0.0933533,0.0422668,0.1968689,0.1254883,0.3003845
					c-0.0832214-0.1035156-0.1262207-0.2055359-0.1254883-0.3003845c0.0036011,1.3681946,0.7124939,2.9289246,1.8058472,3.9747925
					c0.1363525,0.1297913,0.2792969,0.2494507,0.4258423,0.3587646c0.0708008-0.1559143,0.1239624-0.332489,0.1604309-0.5250244
					c0.0343323-0.1793823,0.0548096-0.3734131,0.0553894-0.5834045l0.0118103-4.2608337l0.0021057-0.7992554l0,0l0.0007324-0.16922
					c0.018219-0.0014954,0.0306091-0.0058289,0.0480957-0.0088196l0,0c0.2312317-0.0349426,0.420166-0.0830383,0.5828247-0.1386108
					c0.0028381,0,0.0050659-0.0013428,0.0073242-0.0013428c0.1085815-0.036438,0.2084961-0.0758667,0.2975464-0.1152954
					c0.0969238-0.0452576,0.1867065-0.0888977,0.2697449-0.1326599l0.0007324-0.0014954
					c0.2545166-0.1473999,0.4857483-0.3369446,0.6885986-0.565918c0.2026672-0.2290039,0.3777466-0.497406,0.5206909-0.8037415
					c0.0255432-0.0539246,0.0349426-0.1239929,0.0583801-0.1809082c0.2406311-0.5820618,0.3886719-1.2719727,0.3908997-2.09021
					c0.0007629-0.4507751-0.0372009-0.9130859-0.1123352-1.3813477c-0.054657-0.3442688-0.1480103-0.6929016-0.2400208-1.0400391
					c-0.1946106-0.7366638-0.4660034-1.4673462-0.807312-2.1850586c-0.3711853-0.7789612-0.8058472-1.5389099-1.3156128-2.2331848
					c-0.324585-0.4434509-0.6746826-0.857666-1.0430298-1.245697C69.6511002,84.0253296,69.3171158,83.7073364,68.968483,83.4229431
					z"/>
			</g>
		</g>
		<g>
			<path class="st12" d="M108.1725845,20.661953c3.1864014-1.6948547,6.0651245-1.8144836,8.1692505-0.5922241l-6.0337524-3.5065308
				c-0.2406616-0.1401062-0.4944458-0.255249-0.7541504-0.36026c-0.1312866-0.0525818-0.269043-0.0920105-0.4055176-0.1357727
				c-0.036499-0.0130005-0.0721436-0.026123-0.1101074-0.0377808c-0.0007324,0.0013428-0.0007324,0.0028381-0.0007324,0.0043335
				C108.9019547,17.4806175,108.6087418,19.028347,108.1725845,20.661953z"/>
		</g>
		<g>
			<path class="st13" d="M119.8309097,25.5659447c-0.684082-3.4219666-2.3192139-4.7755127-3.4890747-5.4962158
				c-2.104126-1.2222595-4.9828491-1.1026306-8.1692505,0.5922241c0.4361572-1.633606,0.7293701-3.1813354,0.8649902-4.6282349
				c0-0.0014954,0-0.0029907,0.0007324-0.0043335c0.1641235-1.7562551,0.1094971-3.3710318-0.1713257-4.8267813
				c-0.3035278-1.5723572-0.776123-2.879303-1.4053955-3.8829045c-0.4289551-0.684082-0.776123-1.1304016-1.2384033-1.5943298
				c-0.534729-0.5353394-0.826416-0.724884-1.5330811-1.1844788h-0.0007324
				c-0.3311768-0.1925354-0.6782837-0.3572693-1.0393066-0.4943848c-0.3624878-0.1371458-0.7387695-0.2451169-1.1290283-0.3253477
				c-1.1705933-0.2391052-2.4614258-0.218811-3.8399048,0.0802307c-1.3783569,0.3005064-2.8443604,0.8781126-4.3641968,1.7562253
				c-2.4265747,1.401825-4.7129517,3.4249883-6.7295532,5.7995915c-0.8408813-1.1595154-1.4769287-1.8218079-1.7846069-2.1106873
				c-0.3078613-0.2887268-0.7125854-0.6811218-1.0480957-0.9378662c-0.5229492-0.4010625-1.2515259-0.8955998-1.8079224-1.2485662
				C77.7298355,4.0275235,70.5117264,4.4475369,62.5372353,9.05264
				C46.6802406,18.207119,33.8740578,40.3975487,33.925724,58.6088524c0.0050964,1.6583862,0.1160583,3.2264404,0.3253174,4.6997986
				c0.0831909,0.0495911,0.1925354,0.1078491,0.3179932,0.1705627c-0.1254578-0.0627136-0.2348022-0.1209717-0.3179932-0.1705627
				l-3.2382488,1.8699074C24.305975,69.0513306,18.887701,78.4362793,18.9096737,86.1423645
				c0.0108948,3.8348389,1.3630981,6.530426,3.5438538,7.7979736c0.4207764,0.2246399,1.0567627,0.5629578,1.9318848,0.7293396
				c1.0947266,0.2070313,1.7810669,0.1442871,2.3856812,0.0875244c1.0006104-0.0920105,1.9202576-0.4171753,2.6597595-0.6782532
				c0.5674438-0.1998596,1.0445251-0.4551392,1.9947815-0.9656677l0,0
				c-5.6398926,3.2570801-10.0910034,0.5717773-10.8684692-5.3066711c-0.0093994-0.0670776-0.0197144-0.1341248-0.0276184-0.2026978
				c-0.0612488-0.525177-0.1044006-1.0648193-0.1057434-1.6365967c-0.0204773-7.1269836,4.9928589-15.8103943,11.1951294-19.3912964
				c0.5244122-0.302002,1.0516644-0.6068726,1.6970806-0.9787903c0.2342224-0.1356201,0.4740906-0.274231,0.7111511-0.4113464
				c0.40625-0.2348022,0.8664551-0.5003662,1.3907166-0.8022461c0.1181641-0.068573,0.2137451-0.1239624,0.2939758-0.1707153
				c0.0379333-0.0218201,0.0743713-0.0422974,0.1130676-0.0640869c0.0518188-0.0306091,0.0882568-0.0510864,0.0882568-0.0510864
				c-0.3609924-2.5380287-0.4288025-4.136692-0.4733276-5.6639748
				c-0.0503235-17.6322021,12.3510742-39.1210327,27.7035217-47.9838257
				c10.3746376-5.9906011,19.4285011-4.6661687,24.6722755,2.8838196c2.6773682-3.1580505,4.8267212-5.061554,7.1080322-6.3786626
				c7.5469971-4.3585205,13.6873169-0.8591614,13.7113647,7.8139348c0.0057983,2.0917044-0.3494263,4.2869558-1.4893799,8.1860037
				c7.4523315-4.1644897,12.4066772-1.2894897,12.4263916,5.7689514c0.0065308,2.2579651-0.4945679,4.6720276-1.3755493,7.0306702
				c-1.9633789,5.3634338-5.8091431,10.6160278-10.093811,13.0884705c3.3059082-1.9326477,5.5384521-4.6530457,6.3442993-5.7340088
				c0.6345215-0.8488464,1.6957397-2.2711182,2.7583618-4.3218994c1.1989136-2.313385,1.7825317-4.2052612,1.9326172-4.7289124
				c0.6448364-2.2521667,0.7768555-3.4322815,0.8927612-4.8544006
				C120.1189957,28.118618,120.0350723,26.5884972,119.8309097,25.5659447z"/>
		</g>
		<g>
			<path class="st12" d="M18.9096737,86.1423645c-0.0219727-7.7060852,5.3963013-17.0910339,12.1031189-20.9638062
				l3.2382488-1.8699074c-0.209259-1.4733582-0.3202209-3.0414124-0.3253174-4.6997986
				C33.8740578,40.3975487,46.6802406,18.207119,62.5372353,9.05264c7.9744911-4.605103,15.1926003-5.0251164,20.4095192-1.9925542
				c0.5563965,0.3529663,1.2849731,0.8475037,1.8079224,1.2485662c0.3355103,0.2567444,0.7402344,0.6491394,1.0480957,0.9378662
				c0.3076782,0.2888794,0.9437256,0.9511719,1.7846069,2.1106873c2.0166016-2.3746033,4.3029785-4.3977666,6.7295532-5.7995915
				c1.5198364-0.8781128,2.9858398-1.455719,4.3641968-1.7562253c1.378479-0.2990417,2.6693115-0.3193359,3.8399048-0.0802307
				c0.3902588,0.0802307,0.7665405,0.1882019,1.1290283,0.3253477c0.3610229,0.1371155,0.7081299,0.3018494,1.0393066,0.4943848
				l-6.03302-3.5065002c-0.269043-0.1429443-0.6104736-0.3238525-1.0393066-0.4930725
				c-0.0013428-0.0014954-0.0020752-0.0014954-0.0020752-0.0014954c-0.6848755-0.2712402-1.5928345-0.5148621-2.8101807-0.538147
				c-1.8853149-0.0364685-3.6064453,0.5309753-4.4648438,0.8722839c-3.4651489,1.3798524-6.069519,3.664093-8.0620728,5.7966003
				l-5.3648987-3.1171262C76.643074,3.3958404,76.365242,3.2543914,76.0844193,3.117276
				c-0.1014099-0.0510864-0.2034302-0.1006775-0.3063354-0.1487732c-1.2718506-0.598053-2.2061462-0.8358459-2.5102539-0.9028931
				c-1.3952332-0.3048707-1.6097107-0.3514711-2.5701294-0.4361573c-1.3974609-0.1210022-2.7036743-0.0276489-2.715332-0.0261536
				c-1.5644531,0.1487732-1.8050842,0.1720886-2.8327332,0.3792419c-0.9656372,0.1953737-1.9538612,0.4594728-2.9384804,0.7861329
				c-2.5569763,0.8504944-4.0951538,1.6920164-6.041687,2.7583311c-2.8466187,1.6643982-4.6567993,3.1127934-4.8536682,3.271729
				c-1.2952881,1.0503235-2.9726563,2.5118713-4.2023926,3.6364441c-0.6701965,0.6127014-1.5177002,1.4805298-2.1266785,2.1544495
				c-0.6003113,0.6651306-1.4228516,1.5316153-1.9867249,2.227355c-2.5154724,3.102478-2.5154724,3.102478-3.7012939,4.7901611
				c-0.7979126,1.1348877-2.861084,4.1747742-4.7850647,7.8826599c-0.4303284,0.8285217-0.9985352,1.9356384-1.3719482,2.7917786
				c-0.7241211,1.6599121-1.6431561,3.8932495-2.2857342,5.5852661c-0.8022461,2.1165161-1.7401123,5.7791138-1.7788086,5.9614868
				c-0.3463745,1.6191101-0.7562256,3.7895508-1.0064087,5.426178c-0.1386108,0.9013977-0.228241,2.117981-0.287384,3.0295715
				c-0.1093445,1.7051697-0.151001,4.3729858,0.273468,7.3997498c-1.0289612,0.5937195-2.0588379,1.1888123-3.0879822,1.7825317
				l-0.323822,0.1867065c-3.3051758,1.9326477-5.5362549,4.6530495-6.3422241,5.7325172
				c-0.6337585,0.8488464-1.6941223,2.2696228-2.7561045,4.3204041c-1.199707,2.3148804-1.780304,4.2024231-1.9298096,4.7246094
				c-0.638092,2.2331543-0.7678833,3.3710327-0.8918762,4.8500671c-0.0649719,0.7716064-0.0503235,2.3864136,0.1844788,3.5605774
				c0.0999146,0.5003662,0.4047852,2.0231628,1.1786499,3.2557373c0.5593567,0.8912659,1.0640869,1.4061279,1.5440063,1.7868652
				c0.0137329,0.0101624,0.0283508,0.0202942,0.0415039,0.0306091c0.2370605,0.1925354,0.4849863,0.3675842,0.7460947,0.5191956
				l6.033783,3.5066833C20.2727718,92.6727905,18.9205685,89.9772034,18.9096737,86.1423645z"/>
		</g>
		<g>
			<path class="st14" d="M107.145668,22.9550438c1.1399536-3.8990479,1.4951782-6.0942993,1.4893799-8.1860037
				c-0.0240479-8.6730957-6.1643677-12.1724548-13.7113647-7.8139348c-2.281311,1.3171086-4.4306641,3.220612-7.1080322,6.3786626
				c-5.2437744-7.5499883-14.2983704-8.8744202-24.6722755-2.8838196
				c-15.3524475,8.862792-27.7538452,30.3516235-27.7035217,47.9838257c0.0445251,1.5272827,0.1123352,3.125946,0.4733276,5.6639748
				c-0.0313416,0.0174866-0.0583801,0.0335999-0.0882568,0.0510864c-0.0386963,0.0217896-0.0751343,0.0422668-0.1130676,0.0640869
				c-0.0976868,0.0568848-0.1983643,0.1152954-0.2939758,0.1707153c-0.5242615,0.3018799-0.9844666,0.5674438-1.3907166,0.8022461
				c-0.2370605,0.1371155-0.4769287,0.2757263-0.7111511,0.4113464c-0.6454163,0.3719177-1.1726685,0.6767883-1.6970806,0.9787903
				C25.4166622,70.1569214,20.403326,78.840332,20.4238033,85.9673157c0.0013428,0.5717773,0.0444946,1.1114197,0.1057434,1.6365967
				c0.0079041,0.068573,0.018219,0.1356201,0.0276184,0.2026978c0.7774658,5.8784485,5.2285767,8.5637512,10.8684692,5.3066711
				c9.5082073-5.4845581,62.7038574-36.2022743,76.677063-44.2701454c4.284668-2.4724426,8.1304321-7.7250366,10.093811-13.0884705
				c0.8787231-2.4009094,1.3820801-4.8237915,1.3755493-7.0306702
				C119.5523453,21.665554,114.5979996,18.790554,107.145668,22.9550438z M79.1308975,55.3336143l-8.6542664,4.997345
				c-0.8343506,0.4813843-1.8779602-0.1181641-1.8802185-1.0823059l-0.0283813-9.9216309
				c-0.0043335-1.4981689,0.7934265-2.8853149,2.0909729-3.6336365l8.6541138-4.997345
				c0.8343811-0.4812622,1.8781433,0.1196594,1.8809814,1.0824585l0.027771,9.9231262
				C81.2262039,53.1996117,80.4282913,54.5854454,79.1308975,55.3336143z"/>
		</g>
		<g>
			<g>
				<path class="st12" d="M81.1940994,41.7784996c-0.0028381-0.9627991-1.0466003-1.5637207-1.8809814-1.0824585
					l-2.7910461,1.6118164c1.2275085,0.8140259,2.9552002,2.0552673,4.6829224,3.4264526L81.1940994,41.7784996z"/>
			</g>
			<g>
				<path class="st12" d="M71.91996,56.7325706c-0.1078491-0.0044861-0.2304688-0.0495911-0.3617554-0.1297913
					c-0.1574402-0.0948486-1.5723877-0.7731323-2.9734497-1.4878235l0.0116577,4.1336975
					c0.0022583,0.9641418,1.0458679,1.5636902,1.8802185,1.0823059l3.5153198-2.0288391
					c-0.642395-0.5325012-1.3251648-1.0386963-2.0727234-1.4703674
					C71.9192276,56.7981529,71.9192276,56.7660179,71.91996,56.7325706z"/>
			</g>
			<g>
				<path class="st15" d="M76.3062515,42.4333153L76.3062515,42.4333153
					c0.6424255,0.4404907,1.4330139,1.0021057,2.2243347,1.5768738
					C77.7392654,43.435421,76.9494095,42.873806,76.3062515,42.4333153z"/>
			</g>
			<g>
				<path class="st15" d="M71.9192276,56.8317528c0.0014954,0.0014954,0.1742859-0.096344,0.4923096-0.2772217
					C72.0921707,56.7369041,71.9192276,56.8332481,71.9192276,56.8317528z"/>
			</g>
			<g>
				<path class="st3" d="M91.1917496,57.276577c-2.1814575-3.7982483-4.4298706-6.4004822-5.576416-7.6127625
					c-1.1887817-1.2572021-2.7970581-2.6488342-4.4103394-3.9295044c-1.7277222-1.3711853-3.4554138-2.6124268-4.6829224-3.4264526
					l-0.2158203,0.1254578c0.643158,0.4404907,1.4330139,1.0021057,2.2243347,1.5768738
					c-0.7913208-0.5747681-1.5819092-1.1363831-2.2243347-1.5768738l-5.6472473,3.2600708
					c-0.2785645,0.160553-0.52948,0.3559265-0.7592163,0.5704346c0.8219604,0.4374695,1.5731201,0.8386841,1.9998474,1.0661621
					c0.0794678,0.0424194,0.14505,0.0773621,0.199707,0.1065063c0.0948486,0.0510864,0.1619263,0.0861816,0.1664124,0.0890198
					c2.8742371,1.6846924,5.5785217,4.0652771,7.9838867,6.8557434c5.891449,6.835144,9.9363098,16.1968117,9.9137268,24.2937965
					L90.0948257,89.502594l6.0337524-3.5065308c0.1224976-0.0715332,0.1815186-0.2319641,0.182251-0.4522705
					c0-7.9758606,0.0452881-2.6779785,0.0678101-10.6539917C96.3568497,67.3865662,93.1193008,60.6344566,91.1917496,57.276577z"/>
			</g>
			<g>
				<path class="st10" d="M80.2496414,54.3812523c-2.405365-2.7904663-5.1096497-5.171051-7.9838867-6.8557434
					c-0.0044861-0.0028381-0.0715637-0.0379333-0.1664124-0.0890198c-0.054657-0.0291443-0.1202393-0.0640869-0.199707-0.1065063
					c-0.4267273-0.227478-1.177887-0.6286926-1.9998474-1.0661621v0.0014954
					c-0.3690796,0.3441162-0.6681213,0.7496643-0.8897705,1.1989441l3.4219666,1.9035339
					c2.3935852,1.3813171,4.7106934,3.4336243,6.8178101,5.8871155c5.430481,6.3247375,9.4221802,15.4091835,9.3986816,23.24506
					c0,0.0670776-0.0604858,8.1437378-0.0648193,9.7803345c0.1123657,0.1953735,0.2348022,0.3661194,0.3588257,0.5235291
					c0.0270386,0.0351257,0.0525513,0.0672302,0.0794067,0.0993347c0.1211548,0.1442871,0.2436523,0.2712708,0.3625488,0.368927
					c0.0197144,0.0161438,0.036438,0.0263062,0.0554199,0.0409546c0.2582397,0.1968384,0.4966431,0.2814026,0.6549683,0.1895447
					l0.0685425-10.8275452C90.1859512,70.578064,86.1410904,61.2163963,80.2496414,54.3812523z"/>
			</g>
			<g>
				<path class="st8" d="M89.0218887,88.9031677c-0.0268555-0.0321045-0.0523682-0.064209-0.0794067-0.0993347
					c-0.1240234-0.1574097-0.24646-0.3281555-0.3588257-0.5235291c0.0043335-1.6365967,0.0648193-9.7132568,0.0648193-9.7803345
					c0.0234985-7.8358765-3.9682007-16.9203224-9.3986816-23.24506c-2.1071167-2.4534912-4.4242249-4.5057983-6.8178101-5.8871155
					l-3.4219666-1.9035339c-0.2830505,0.570282-0.4434814,1.2034607-0.4419861,1.8627625l0.0167236,5.7879333
					c1.401062,0.7146912,2.8160095,1.3929749,2.9734497,1.4878235c0.1312866,0.0802002,0.2539063,0.1253052,0.3617554,0.1297913
					c-0.0007324,0.0334473-0.0007324,0.0655823-0.0007324,0.0991821c0,0.0014954,0.1729431-0.0948486,0.4923096-0.2772217
					c-0.3180237,0.1808777-0.4908142,0.278717-0.4923096,0.2772217c0.7475586,0.4316711,1.4303284,0.9378662,2.0727234,1.4703674
					c2.4236145,2.0085144,4.1017456,4.5245972,4.9697266,6.0430336c0.5287476,0.9248962,1.5118713,2.8036194,2.158783,4.9960022
					c0.7015686,2.3746338,0.7453308,3.8609619,0.7766724,4.9462585c-0.022522,7.9758301-0.0452271,2.6794739-0.0677795,10.6554565
					c0.6031189,0.3486328,1.2062683,0.6957703,1.8094177,1.0443726c0.6418457,0.370575,1.2828979,0.7410278,1.9247437,1.1114502l0,0
					c1.3484497,0.7789307,2.6963501,1.5563965,4.0447998,2.3353271c-0.053894-0.0306091-0.1115723-0.0772095-0.168457-0.1209717
					c-0.0189819-0.0146484-0.0357056-0.0248108-0.0554199-0.0409546
					C89.2655411,89.1744385,89.1430435,89.0474548,89.0218887,88.9031677z"/>
			</g>
		</g>
	</g>
</g>
</svg>
